Module 1 Exercise: Exploring Somali Landing Site Data
…
Code

lw |> 
  count(fish_group, region, sort = TRUE)

# A tibble: 27 × 3
   fish_group region        n
   <chr>      <chr>     <int>
 1 Tuna       Bosaso      573
 2 Tuna       Berbera     568
 3 Tuna       Mogadishu   451
 4 Other      Berbera     345
 5 Other      Kismayo     221
 6 Shark      Kismayo     197
 7 Other      Mogadishu   175
 8 Other      Bosaso      143
 9 Jacks      Bosaso      105
10 Shark      Mogadishu   104
# ℹ 17 more rows
…
